{
  "meta": {
    "request_id": "req_8f3a921b-c4d7-4e92-bd12-f0e2a39c4d56",
    "timestamp": "2023-10-27T14:30:00Z",
    "api_version": "v1.2"
  },
  "pagination": {
    "page": 1,
    "per_page": 30,
    "total": 145,
    "total_pages": 5,
    "has_next": true,
    "has_prev": false
  },
  "data": [
    {
      "id": "u_9921",
      "email": "sarah.jenkins@techcorp.io",
      "first_name": "Sarah",
      "last_name": "Jenkins",
      "avatar_url": "https://api.dicebear.com/7.x/avataaars/svg?seed=Sarah",
      "role": "admin",
      "department": "Engineering",
      "is_active": true,
      "created_at": "2022-01-15T09:00:00Z",
      "last_login_at": "2023-10-27T08:15:22Z",
      "preferences": {
        "theme": "dark",
        "notifications_enabled": true,
        "language": "en-US"
      }
    },
    {
      "id": "u_9922",
      "email": "m.rodriguez@techcorp.io",
      "first_name": "Mateo",
      "last_name": "Rodriguez",
      "avatar_url": "https://api.dicebear.com/7.x/avataaars/svg?seed=Mateo",
      "role": "editor",
      "department": "Marketing",
      "is_active": true,
      "created_at": "2022-03-12T11:20:00Z",
      "last_login_at": "2023-10-26T16:45:10Z",
      "preferences": {
        "theme": "light",
        "notifications_enabled": false,
        "language": "es-ES"
      }
    },
    {
      "id": "u_9923",
      "email": "elena.vance@techcorp.io",
      "first_name": "Elena",
      "last_name": "Vance",
      "avatar_url": "https://api.dicebear.com/7.x/avataaars/svg?seed=Elena",
      "role": "viewer",
      "department": "Sales",
      "is_active": true,
      "created_at": "2022-06-05T14:10:00Z",
      "last_login_at": "2023-10-27T09:12:05Z",
      "preferences": {
        "theme": "system",
        "notifications_enabled": true,
        "language": "en-US"
      }
    },
    {
      "id": "u_9924",
      "email": "k.patel@techcorp.io",
      "first_name": "Kiran",
      "last_name": "Patel",
      "avatar_url": "https://api.dicebear.com/7.x/avataaars/svg?seed=Kiran",
      "role": "editor",
      "department": "Product",
      "is_active": false,
      "created_at": "2021-11-20T10:00:00Z",
      "last_login_at": "2023-08-15T12:00:00Z",
      "preferences": {
        "theme": "dark",
        "notifications_enabled": true,
        "language": "en-US"
      }
    },
    {
      "id": "u_9925",
      "email": "d.thompson@techcorp.io",
      "first_name": "David",
      "last_name": "Thompson",
      "avatar_url": "https://api.dicebear.com/7.x/avataaars/svg?seed=David",
      "role": "viewer",
      "department": "Support",
      "is_active": true,
      "created_at": "2023-01-08T09:30:00Z",
      "last_login_at": "2023-10-27T10:05:30Z",
      "preferences": {
        "theme": "light",
        "notifications_enabled": true,
        "language": "en-GB"
      }
    },
    {
      "id": "u_9926",
      "email": "l.kim@techcorp.io",
      "first_name": "Linda",
      "last_name": "Kim",
      "avatar_url": "https://api.dicebear.com/7.x/avataaars/svg?seed=Linda",
      "role": "admin",
      "department": "Engineering",
      "is_active": true,
      "created_at": "2022-02-14T08:45:00Z",
      "last_login_at": "2023-10-27T07:20:15Z",
      "preferences": {
        "theme": "dark",
        "notifications_enabled": true,
        "language": "ko-KR"
      }
    },
    {
      "id": "u_9927",
      "email": "a.baker@techcorp.io",
      "first_name": "Alex",
      "last_name": "Baker",
      "avatar_url": "https://api.dicebear.com/7.x/avataaars/svg?seed=Alex",
      "role": "editor",
      "department": "Design",
      "is_active": true,
      "created_at": "2023-05-22T13:00:00Z",
      "last_login_at": "2023-10-26T18:30:45Z",
      "preferences": {
        "theme": "system",
        "notifications_enabled": false,
        "language": "en-US"
      }
    },
    {
      "id": "u_9928",
      "email": "j.sanchez@techcorp.io",
      "first_name": "Jorge",
      "last_name": "Sanchez",
      "avatar_url": "https://api.dicebear.com/7.x/avataaars/svg?seed=Jorge",
      "role": "viewer",
      "department": "Operations",
      "is_active": true,
      "created_at": "2022-09-01T15:20:00Z",
      "last_login_at": "2023-10-27T06:45:00Z",
      "preferences": {
        "theme": "light",
        "notifications_enabled": true,
        "language": "es-MX"
      }
    },
    {
      "id": "u_9929",
      "email": "r.chen@techcorp.io",
      "first_name": "Rachel",
      "last_name": "Chen",
      "avatar_url": "https://api.dicebear.com/7.x/avataaars/svg?seed=Rachel",
      "role": "admin",
      "department": "Engineering",
      "is_active": true,
      "created_at": "2021-12-10T10:00:00Z",
      "last_login_at": "2023-10-27T11:15:00Z",
      "preferences": {
        "theme": "dark",
        "notifications_enabled": true,
        "language": "en-US"
      }
    },
    {
      "id": "u_9930",
      "email": "m.wilson@techcorp.io",
      "first_name": "Mark",
      "last_name": "Wilson",
      "avatar_url": "https://api.dicebear.com/7.x/avataaars/svg?seed=Mark",
      "role": "editor",
      "department": "Marketing",
      "is_active": true,
      "created_at": "2023-04-18T14:00:00Z",
      "last_login_at": "2023-10-25T09:20:00Z",
      "preferences": {
        "theme": "light",
        "notifications_enabled": true,
        "language": "en-US"
      }
    },
    {
      "id": "u_9931",
      "email": "t.foster@techcorp.io",
      "first_name": "Taylor",
      "last_name": "Foster",
      "avatar_url": "https://api.dicebear.com/7.x/avataaars/svg?seed=Taylor",
      "role": "viewer",
      "department": "Legal",
      "is_active": true,
      "created_at": "2022-08-30T16:10:00Z",
      "last_login_at": "2023-10-27T08:50:00Z",
      "preferences": {
        "theme": "system",
        "notifications_enabled": true,
        "language": "en-US"
      }
    },
    {
      "id": "u_9932",
      "email": "h.nguyen@techcorp.io",
      "first_name": "Hana",
      "last_name": "Nguyen",
      "avatar_url": "https://api.dicebear.com/7.x/avataaars/svg?seed=Hana",
      "role": "editor",
      "department": "Product",
      "is_active": true,
      "created_at": "2023-07-12T11:00:00Z",
      "last_login_at": "2023-10-26T17:15:00Z",
      "preferences": {
        "theme": "dark",
        "notifications_enabled": false,
        "language": "vi-VN"
      }
    },
    {
      "id": "u_9933",
      "email": "p.davis@techcorp.io",
      "first_name": "Paul",
      "last_name": "Davis",
      "avatar_url": "https://api.dicebear.com/7.x/avataaars/svg?seed=Paul",
      "role": "viewer",
      "department": "Sales",
      "is_active": true,
      "created_at": "2022-04-05T09:30:00Z",
      "last_login_at": "2023-10-27T09:00:00Z",
      "preferences": {
        "theme": "light",
        "notifications_enabled": true,
        "language": "en-US"
      }
    },
    {
      "id": "u_9934",
      "email": "c.miller@techcorp.io",
      "first_name": "Chloe",
      "last_name": "Miller",
      "avatar_url": "https://api.dicebear.com/7.x/avataaars/svg?seed=Chloe",
      "role": "admin",
      "department": "Engineering",
      "is_active": true,
      "created_at": "2022-10-10T12:00:00Z",
      "last_login_at": "2023-10-27T10:45:00Z",
      "preferences": {
        "theme": "dark",
        "notifications_enabled": true,
        "language": "en-US"
      }
    },
    {
      "id": "u_9935",
      "email": "s.jones@techcorp.io",
      "first_name": "Samuel",
      "last_name": "Jones",
      "avatar_url": "https://api.dicebear.com/7.x/avataaars/svg?seed=Samuel",
      "role": "editor",
      "department": "Finance",
      "is_active": true,
      "created_at": "2023-02-15T08:15:00Z",
      "last_login_at": "2023-10-26T14:30:00Z",
      "preferences": {
        "theme": "light",
        "notifications_enabled": true,
        "language": "en-US"
      }
    },
    {
      "id": "u_9936",
      "email": "i.ivanov@techcorp.io",
      "first_name": "Ivan",
      "last_name": "Ivanov",
      "avatar_url": "https://api.dicebear.com/7.x/avataaars/svg?seed=Ivan",
      "role": "viewer",
      "department": "Engineering",
      "is_active": true,
      "created_at": "2022-12-01T10:00:00Z",
      "last_login_at": "2023-10-27T08:00:00Z",
      "preferences": {
        "theme": "dark",
        "notifications_enabled": true,
        "language": "ru-RU"
      }
    },
    {
      "id": "u_9937",
      "email": "f.smith@techcorp.io",
      "first_name": "Felicity",
      "last_name": "Smith",
      "avatar_url": "https://api.dicebear.com/7.x/avataaars/svg?seed=Felicity",
      "role": "editor",
      "department": "Design",
      "is_active": true,
      "created_at": "2023-03-20T11:45:00Z",
      "last_login_at": "2023-10-25T16:10:00Z",
      "preferences": {
        "theme": "system",
        "notifications_enabled": true,
        "language": "en-US"
      }
    },
    {
      "id": "u_9938",
      "email": "b.brown@techcorp.io",
      "first_name": "Benjamin",
      "last_name": "Brown",
      "avatar_url": "https://api.dicebear.com/7.x/avataaars/svg?seed=Benjamin",
      "role": "viewer",
      "department": "Support",
      "is_active": true,
      "created_at": "2022-07-14T09:00:00Z",
      "last_login_at": "2023-10-27T09:30:00Z",
      "preferences": {
        "theme": "light",
        "notifications_enabled": false,
        "language": "en-GB"
      }
    },
    {
      "id": "u_9939",
      "email": "e.moore@techcorp.io",
      "first_name": "Emily",
      "last_name": "Moore",
      "avatar_url": "https://api.dicebear.com/7.x/avataaars/svg?seed=Emily",
      "role": "admin",
      "department": "HR",
      "is_active": true,
      "created_at": "2021-09-10T10:00:00Z",
      "last_login_at": "2023-10-27T08:45:00Z",
      "preferences": {
        "theme": "dark",
        "notifications_enabled": true,
        "language": "en-US"
      }
    },
    {
      "id": "u_9940",
      "email": "d.white@techcorp.io",
      "first_name": "Daniel",
      "last_name": "White",
      "avatar_url": "https://api.dicebear.com/7.x/avataaars/svg?seed=Daniel",
      "role": "editor",
      "department": "Sales",
      "is_active": true,
      "created_at": "2023-06-01T13:20:00Z",
      "last_login_at": "2023-10-26T15:00:00Z",
      "preferences": {
        "theme": "light",
        "notifications_enabled": true,
        "language": "en-US"
      }
    },
    {
      "id": "u_9941",
      "email": "g.green@techcorp.io",
      "first_name": "Grace",
      "last_name": "Green",
      "avatar_url": "https://api.dicebear.com/7.x/avataaars/svg?seed=Grace",
      "role": "viewer",
      "department": "Engineering",
      "is_active": true,
      "created_at": "2022-11-12T09:30:00Z",
      "last_login_at": "2023-10-27T07:10:00Z",
      "preferences": {
        "theme": "dark",
        "notifications_enabled": true,
        "language": "en-US"
      }
    },
    {
      "id": "u_9942",
      "email": "h.hall@techcorp.io",
      "first_name": "Henry",
      "last_name": "Hall",
      "avatar_url": "https://api.dicebear.com/7.x/avataaars/svg?seed=Henry",
      "role": "editor",
      "department": "Marketing",
      "is_active": true,
      "created_at": "2023-01-20T10:00:00Z",
      "last_login_at": "2023-10-26T18:00:00Z",
      "preferences": {
        "theme": "light",
        "notifications_enabled": true,
        "language": "en-US"
      }
    },
    {
      "id": "u_9943",
      "email": "i.irwin@techcorp.io",
      "first_name": "Iris",
      "last_name": "Irwin",
      "avatar_url": "https://api.dicebear.com/7.x/avataaars/svg?seed=Iris",
      "role": "viewer",
      "department": "Finance",
      "is_active": true,
      "created_at": "2022-05-15T11:00:00Z",
      "last_login_at": "2023-10-27T09:15:00Z",
      "preferences": {
        "theme": "system",
        "notifications_enabled": false,
        "language": "en-US"
      }
    },
    {
      "id": "u_9944",
      "email": "j.jackson@techcorp.io",
      "first_name": "Jack",
      "last_name": "Jackson",
      "avatar_url": "https://api.dicebear.com/7.x/avataaars/svg?seed=Jack",
      "role": "editor",
      "department": "Engineering",
      "is_active": true,
      "created_at": "2023-08-05T08:30:00Z",
      "last_login_at": "2023-10-27T10:00:00Z",
      "preferences": {
        "theme": "dark",
        "notifications_enabled": true,
        "language": "en-US"
      }
    },
    {
      "id": "u_9945",
      "email": "k.king@techcorp.io",
      "first_name": "Kevin",
      "last_name": "King",
      "avatar_url": "https://api.dicebear.com/7.x/avataaars/svg?seed=Kevin",
      "role": "viewer",
      "department": "Product",
      "is_active": true,
      "created_at": "2022-02-28T09:45:00Z",
      "last_login_at": "2023-10-26T17:30:00Z",
      "preferences": {
        "theme": "light",
        "notifications_enabled": true,
        "language": "en-US"
      }
    },
    {
      "id": "u_9946",
      "email": "l.long@techcorp.io",
      "first_name": "Laura",
      "last_name": "Long",
      "avatar_url": "https://api.dicebear.com/7.x/avataaars/svg?seed=Laura",
      "role": "admin",
      "department": "Operations",
      "is_active": true,
      "created_at": "2021-10-15T10:00:00Z",
      "last_login_at": "2023-10-27T06:30:00Z",
      "preferences": {
        "theme": "dark",
        "notifications_enabled": true,
        "language": "en-US"
      }
    },
    {
      "id": "u_9947",
      "email": "m.martin@techcorp.io",
      "first_name": "Mike",
      "last_name": "Martin",
      "avatar_url": "https://api.dicebear.com/7.x/avataaars/svg?seed=Mike",
      "role": "editor",
      "department": "Sales",
      "is_active": true,
      "created_at": "2023-04-10T12:00:00Z",
      "last_login_at": "2023-10-27T08:10:00Z",
      "preferences": {
        "theme": "light",
        "notifications_enabled": true,
        "language": "en-US"
      }
    },
    {
      "id": "u_9948",
      "email": "n.nelson@techcorp.io",
      "first_name": "Nina",
      "last_name": "Nelson",
      "avatar_url": "https://api.dicebear.com/7.x/avataaars/svg?seed=Nina",
      "role": "viewer",
      "department": "Design",
      "is_active": true,
      "created_at": "2022-09-20T11:00:00Z",
      "last_login_at": "2023-10-26T14:45:00Z",
      "preferences": {
        "theme": "system",
        "notifications_enabled": false,
        "language": "en-US"
      }
    },
    {
      "id": "u_9949",
      "email": "o.owens@techcorp.io",
      "first_name": "Oscar",
      "last_name": "Owens",
      "avatar_url": "https://api.dicebear.com/7.x/avataaars/svg?seed=Oscar",
      "role": "editor",
      "department": "Engineering",
      "is_active": true,
      "created_at": "2023-07-25T09:00:00Z",
      "last_login_at": "2023-10-27T07:50:00Z",
      "preferences": {
        "theme": "dark",
        "notifications_enabled": true,
        "language": "en-US"
      }
    },
    {
      "id": "u_9950",
      "email": "p.parker@techcorp.io",
      "first_name": "Peter",
      "last_name": "Parker",
      "avatar_url": "https://api.dicebear.com/7.x/avataaars/svg?seed=Peter",
      "role": "admin",
      "department": "Engineering",
      "is_active": true,
      "created_at": "2021-08-01T10:00:00Z",
      "last_login_at": "2023-10-27T10:30:00Z",
      "preferences": {
        "theme": "dark",
        "notifications_enabled": true,
        "language": "en-US"
      }
    }
  ]
}